{
  "page": 1,
  "limit": 10,
  "explicit": false,
  "total": 65090348,
  "has_more": true,
  "list": [
    {
      "access_error": null,
      "allow_embed": true,
      "created_time": 1454116247,
      "description": "Read or Download Book PDF Here http://readsbooksonline.com.playsterpdf.com/?book=0736094091<br /><br /><br /><br /><br /><br />Physiology of Sport and Exercise with Web Study Guide 5th Edition  PDF Download ",
      "duration": 6,
      "id": "x3pbbgj",
      "owner.id": "x1q0f9s",
      "owner.screenname": "Anas",
      "owner.url": "http://www.dailymotion.com/anas42",
      "private": true,
      "private_id": null,
      "published": true,
      "tags": [
        "Physiology Sport and Exercise with Web Study Guide 5th Edition"
      ],
      "thumbnail_120_url": "http://s2.dmcdn.net/SqUMz/x120-Hw3.jpg",
      "thumbnail_180_url": "http://s2.dmcdn.net/SqUMz/x180-jNT.jpg",
      "thumbnail_240_url": "http://s2.dmcdn.net/SqUMz/x240-lUU.jpg",
      "thumbnail_360_url": "http://s2.dmcdn.net/SqUMz/x360-uNk.jpg",
      "thumbnail_480_url": "http://s2.dmcdn.net/SqUMz/x480-58k.jpg",
      "thumbnail_60_url": "http://s2.dmcdn.net/SqUMz/x60-2BL.jpg",
      "thumbnail_720_url": "http://s2.dmcdn.net/SqUMz/x720-A0U.jpg",
      "thumbnail_url": "http://s2.dmcdn.net/SqUMz.jpg",
      "title": "Physiology of Sport and Exercise with Web Study Guide 5th Edition  PDF Download",
      "url": "http://www.dailymotion.com/video/x3pbbgj_physiology-of-sport-and-exercise-with-web-study-guide-5th-edition-pdf-download_lifestyle",
      "views_total": 0
    }
  ]
}