{
  "page": 1,
  "limit": 10,
  "explicit": false,
  "total": 65090348,
  "has_more": true,
  "list": [
    {
      "access_error": null,
      "allow_embed": true,
      "created_time": 1454116247,
      "description": "Read or Download Book PDF Here http://readsbooksonline.com.playsterpdf.com/?book=0736094091<br /><br /><br /><br /><br /><br />Physiology of Sport and Exercise with Web Study Guide 5th Edition  PDF Download ",
      "duration": 6,
      "id": "x3pbbgj",
      "owner.id": "x1q0f9s",
      "owner.screenname": "Anas",
      "owner.url": "http://www.dailymotion.com/anas42",
      "private": false,
      "private_id": null,
      "published": true,
      "tags": [
        "Physiology Sport and Exercise with Web Study Guide 5th Edition"
      ],
      "thumbnail_120_url": "http://s2.dmcdn.net/SqUMz/x120-Hw3.jpg",
      "thumbnail_180_url": "http://s2.dmcdn.net/SqUMz/x180-jNT.jpg",
      "thumbnail_240_url": "http://s2.dmcdn.net/SqUMz/x240-lUU.jpg",
      "thumbnail_360_url": "http://s2.dmcdn.net/SqUMz/x360-uNk.jpg",
      "thumbnail_480_url": "http://s2.dmcdn.net/SqUMz/x480-58k.jpg",
      "thumbnail_60_url": "http://s2.dmcdn.net/SqUMz/x60-2BL.jpg",
      "thumbnail_720_url": "http://s2.dmcdn.net/SqUMz/x720-A0U.jpg",
      "thumbnail_url": "http://s2.dmcdn.net/SqUMz.jpg",
      "title": "Physiology of Sport and Exercise with Web Study Guide 5th Edition  PDF Download",
      "url": "http://www.dailymotion.com/video/x3pbbgj_physiology-of-sport-and-exercise-with-web-study-guide-5th-edition-pdf-download_lifestyle",
      "views_total": 0
    },
    {
      "access_error": null,
      "allow_embed": true,
      "created_time": 1454116246,
      "description": "صفحتنا على الفيس بوك: تابعنا على تويتر: تابعنا على انستقرام:",
      "duration": 1588,
      "id": "x3pb97a",
      "owner.id": "x1oumna",
      "owner.screenname": "افلام وثائقية",
      "owner.url": "http://www.dailymotion.com/DocumentaryArabic",
      "private": false,
      "private_id": null,
      "published": true,
      "tags": [
        "وثائقي",
        "نبض",
        "المستقبل",
        "معالم",
        "الثورة",
        "التقنية"
      ],
      "thumbnail_120_url": "http://s2.dmcdn.net/Su4DB/x120-R5B.jpg",
      "thumbnail_180_url": "http://s2.dmcdn.net/Su4DB/x180-mP4.jpg",
      "thumbnail_240_url": "http://s2.dmcdn.net/Su4DB/x240-992.jpg",
      "thumbnail_360_url": "http://s2.dmcdn.net/Su4DB/x360-0BT.jpg",
      "thumbnail_480_url": "http://s2.dmcdn.net/Su4DB/x480-CIC.jpg",
      "thumbnail_60_url": "http://s2.dmcdn.net/Su4DB/x60-zTt.jpg",
      "thumbnail_720_url": "http://s2.dmcdn.net/Su4DB/x720-GTY.jpg",
      "thumbnail_url": "http://s2.dmcdn.net/Su4DB.jpg",
      "title": "وثائقي نبض المستقبل معالم الثورة التقنية HD",
      "url": "http://www.dailymotion.com/video/x3pb97a_%D9%88%D8%AB%D8%A7%D8%A6%D9%82%D9%8A-%D9%86%D8%A8%D8%B6-%D8%A7%D9%84%D9%85%D8%B3%D8%AA%D9%82%D8%A8%D9%84-%D9%85%D8%B9%D8%A7%D9%84%D9%85-%D8%A7%D9%84%D8%AB%D9%88%D8%B1%D8%A9-%D8%A7%D9%84%D8%AA%D9%82%D9%86%D9%8A%D8%A9-hd_tv",
      "views_total": 0
    },
    {
      "access_error": null,
      "allow_embed": true,
      "channel.name" : "Fake Channel",
      "created_time": 1454116245,
      "description": "Download Here http://readsbooksonline.com.playsterpdf.com/?book=0534514219<br /><br /><br /><br />Cognitive Psychology  Free Books <br />",
      "duration": 6,
      "id": "x3pbbgh",
      "owner.id": "x1q0f7t",
      "owner.screenname": "Deuimad",
      "owner.url": "http://www.dailymotion.com/deuimad",
      "private": false,
      "private_id": null,
      "published": true,
      "tags": [
        "Cognitive Psychology"
      ],
      "thumbnail_120_url": "http://s2.dmcdn.net/SsU0I/x120-eVY.jpg",
      "thumbnail_180_url": "http://s2.dmcdn.net/SsU0I/x180-Xzy.jpg",
      "thumbnail_240_url": "http://s2.dmcdn.net/SsU0I/x240-71V.jpg",
      "thumbnail_360_url": "http://s2.dmcdn.net/SsU0I/x360-9N5.jpg",
      "thumbnail_480_url": "http://s2.dmcdn.net/SsU0I/x480-yBP.jpg",
      "thumbnail_60_url": "http://s2.dmcdn.net/SsU0I/x60-QJJ.jpg",
      "thumbnail_720_url": "http://s2.dmcdn.net/SsU0I/x720-DJR.jpg",
      "thumbnail_url": "http://s2.dmcdn.net/SsU0I.jpg",
      "title": "Cognitive Psychology  Free Books",
      "url": "http://www.dailymotion.com/video/x3pbbgh_cognitive-psychology-free-books_lifestyle",
      "views_total": 45363234
    },
    {
      "access_error": null,
      "allow_embed": true,
      "created_time": 1454116243,
      "description": "Download Here http://readsbooksonline.com.playsterpdf.com/?book=1472410939<br /><br /><br /><br />The Ashgate Research Companion to Theological Anthropology  Read Online Book <br />",
      "duration": 5,
      "id": "x3pbbgu",
      "owner.id": "x1q0f7t",
      "owner.screenname": "Deuimad",
      "owner.url": "http://www.dailymotion.com/deuimad",
      "private": false,
      "private_id": null,
      "published": true,
      "tags": [
        "The Ashgate Research Companion Theological Anthropology"
      ],
      "thumbnail_120_url": "http://s2.dmcdn.net/SsaCA/x120-H4g.jpg",
      "thumbnail_180_url": "http://s2.dmcdn.net/SsaCA/x180-iCb.jpg",
      "thumbnail_240_url": "http://s2.dmcdn.net/SsaCA/x240-A9R.jpg",
      "thumbnail_360_url": "http://s2.dmcdn.net/SsaCA/x360-JH1.jpg",
      "thumbnail_480_url": "http://s2.dmcdn.net/SsaCA/x480-5Gk.jpg",
      "thumbnail_60_url": "http://s2.dmcdn.net/SsaCA/x60-pqz.jpg",
      "thumbnail_720_url": "http://s2.dmcdn.net/SsaCA/x720-cXZ.jpg",
      "thumbnail_url": "http://s2.dmcdn.net/SsaCA.jpg",
      "title": "The Ashgate Research Companion to Theological Anthropology  Read Online Book",
      "url": "http://www.dailymotion.com/video/x3pbbgu_the-ashgate-research-companion-to-theological-anthropology-read-online-book_lifestyle",
      "views_total": 0
    },
    {
      "access_error": null,
      "allow_embed": true,
      "created_time": 1454116241,
      "description": "Read or Download Book PDF Here http://readsbooksonline.com.playsterpdf.com/?book=0073524182<br /><br /><br /><br /><br /><br />Biology of the Invertebrates  Free Books  ",
      "duration": 6,
      "id": "x3pbbgb",
      "owner.id": "x1q0f9s",
      "owner.screenname": "Anas",
      "owner.url": "http://www.dailymotion.com/anas42",
      "private": false,
      "private_id": null,
      "published": true,
      "tags": [
        "Biology the Invertebrates"
      ],
      "thumbnail_120_url": "http://s1.dmcdn.net/Su4Cv/x120-DZ-.jpg",
      "thumbnail_180_url": "http://s1.dmcdn.net/Su4Cv/x180-dnK.jpg",
      "thumbnail_240_url": "http://s1.dmcdn.net/Su4Cv/x240-6Ch.jpg",
      "thumbnail_360_url": "http://s1.dmcdn.net/Su4Cv/x360-EcM.jpg",
      "thumbnail_480_url": "http://s1.dmcdn.net/Su4Cv/x480-eG5.jpg",
      "thumbnail_60_url": "http://s1.dmcdn.net/Su4Cv/x60-6Z_.jpg",
      "thumbnail_720_url": "http://s1.dmcdn.net/Su4Cv/x720-Emm.jpg",
      "thumbnail_url": "http://s1.dmcdn.net/Su4Cv.jpg",
      "title": "Biology of the Invertebrates  Free Books",
      "url": "http://www.dailymotion.com/video/x3pbbgb_biology-of-the-invertebrates-free-books_lifestyle",
      "views_total": 0
    },
    {
      "access_error": null,
      "allow_embed": true,
      "created_time": 1454116235,
      "description": "",
      "duration": 6,
      "id": "x3pbbfy",
      "owner.id": "x1q0f9s",
      "owner.screenname": "Anas",
      "owner.url": "http://www.dailymotion.com/anas42",
      "private": false,
      "private_id": null,
      "published": true,
      "tags": [
        "Biostatistics Foundation for Analysis the Health Sciences"
      ],
      "thumbnail_120_url": "http://s1.dmcdn.net/Suvc8/x120-NMt.jpg",
      "thumbnail_180_url": "http://s1.dmcdn.net/Suvc8/x180-XKB.jpg",
      "thumbnail_240_url": "http://s1.dmcdn.net/Suvc8/x240-Vgf.jpg",
      "thumbnail_360_url": "http://s1.dmcdn.net/Suvc8/x360-MRU.jpg",
      "thumbnail_480_url": "http://s1.dmcdn.net/Suvc8/x480-gqC.jpg",
      "thumbnail_60_url": "http://s1.dmcdn.net/Suvc8/x60-ZzK.jpg",
      "thumbnail_720_url": "http://s1.dmcdn.net/Suvc8/x720-1wA.jpg",
      "thumbnail_url": "http://s1.dmcdn.net/Suvc8.jpg",
      "title": "Biostatistics: A Foundation for Analysis in the Health Sciences  Free Books",
      "url": "http://www.dailymotion.com/video/x3pbbfy_biostatistics-a-foundation-for-analysis-in-the-health-sciences-free-books_lifestyle",
      "views_total": 0
    },
    {
      "access_error": null,
      "allow_embed": true,
      "created_time": 1454116234,
      "description": "Read or Download Book PDF Here http://readsbooksonline.com.playsterpdf.com/?book=1605352896<br /><br /><br /><br /><br /><br />Essentials of Conservation Biology Sixth Edition  Free Books  ",
      "duration": 7,
      "id": "x3pbbft",
      "owner.id": "x1q0f9s",
      "owner.screenname": "Anas",
      "owner.url": "http://www.dailymotion.com/anas42",
      "private": false,
      "private_id": null,
      "published": true,
      "tags": [
        "Essentials Conservation Biology Sixth Edition"
      ],
      "thumbnail_120_url": "http://s2.dmcdn.net/Su4CY/x120-J8A.jpg",
      "thumbnail_180_url": "http://s2.dmcdn.net/Su4CY/x180-9il.jpg",
      "thumbnail_240_url": "http://s2.dmcdn.net/Su4CY/x240-LSU.jpg",
      "thumbnail_360_url": "http://s2.dmcdn.net/Su4CY/x360-wZC.jpg",
      "thumbnail_480_url": "http://s2.dmcdn.net/Su4CY/x480-RDR.jpg",
      "thumbnail_60_url": "http://s2.dmcdn.net/Su4CY/x60-lGg.jpg",
      "thumbnail_720_url": "http://s2.dmcdn.net/Su4CY/x720-EBm.jpg",
      "thumbnail_url": "http://s2.dmcdn.net/Su4CY.jpg",
      "title": "Essentials of Conservation Biology Sixth Edition  Free Books",
      "url": "http://www.dailymotion.com/video/x3pbbft_essentials-of-conservation-biology-sixth-edition-free-books_lifestyle",
      "views_total": 0
    },
    {
      "access_error": null,
      "allow_embed": true,
      "created_time": 1454116232,
      "description": "Read or Download Book PDF Here http://readsbooksonline.com.playsterpdf.com/?book=0393088812<br /><br /><br /><br /><br /><br />The Vital Question: Energy Evolution and the Origins of Complex Life  PDF Download ",
      "duration": 5,
      "id": "x3pbbfo",
      "owner.id": "x1q0f9s",
      "owner.screenname": "Anas",
      "owner.url": "http://www.dailymotion.com/anas42",
      "private": false,
      "private_id": null,
      "published": true,
      "tags": [
        "The Vital Question Energy Evolution and the Origins Complex Life"
      ],
      "thumbnail_120_url": "http://s1.dmcdn.net/Su4CS/x120-sdH.jpg",
      "thumbnail_180_url": "http://s1.dmcdn.net/Su4CS/x180-Rx2.jpg",
      "thumbnail_240_url": "http://s1.dmcdn.net/Su4CS/x240-5l4.jpg",
      "thumbnail_360_url": "http://s1.dmcdn.net/Su4CS/x360-OT6.jpg",
      "thumbnail_480_url": "http://s1.dmcdn.net/Su4CS/x480-481.jpg",
      "thumbnail_60_url": "http://s1.dmcdn.net/Su4CS/x60-i0_.jpg",
      "thumbnail_720_url": "http://s1.dmcdn.net/Su4CS/x720-HKv.jpg",
      "thumbnail_url": "http://s1.dmcdn.net/Su4CS.jpg",
      "title": "The Vital Question: Energy Evolution and the Origins of Complex Life  PDF Download",
      "url": "http://www.dailymotion.com/video/x3pbbfo_the-vital-question-energy-evolution-and-the-origins-of-complex-life-pdf-download_lifestyle",
      "views_total": 0
    },
    {
      "access_error": null,
      "allow_embed": true,
      "created_time": 1454116230,
      "description": "Download Here http://readsbooksonline.com.playsterpdf.com/?book=1591477824<br /><br /><br /><br />Cognitive Schemas and Core Beliefs in Psychological Problems: A Scientist-Practitioner Guide<br />",
      "duration": 7,
      "id": "x3pbbfm",
      "owner.id": "x1q0f7t",
      "owner.screenname": "Deuimad",
      "owner.url": "http://www.dailymotion.com/deuimad",
      "private": false,
      "private_id": null,
      "published": true,
      "tags": [
        "Cognitive Schemas and Core Beliefs Psychological Problems ScientistPractitioner Guide"
      ],
      "thumbnail_120_url": "http://s2.dmcdn.net/SsaAF/x120-vjl.jpg",
      "thumbnail_180_url": "http://s2.dmcdn.net/SsaAF/x180-1Mv.jpg",
      "thumbnail_240_url": "http://s2.dmcdn.net/SsaAF/x240-9Cs.jpg",
      "thumbnail_360_url": "http://s2.dmcdn.net/SsaAF/x360-Mmb.jpg",
      "thumbnail_480_url": "http://s2.dmcdn.net/SsaAF/x480-iTL.jpg",
      "thumbnail_60_url": "http://s2.dmcdn.net/SsaAF/x60-_GI.jpg",
      "thumbnail_720_url": "http://s2.dmcdn.net/SsaAF/x720-mZu.jpg",
      "thumbnail_url": "http://s2.dmcdn.net/SsaAF.jpg",
      "title": "Cognitive Schemas and Core Beliefs in Psychological Problems: A Scientist-Practitioner Guide",
      "url": "http://www.dailymotion.com/video/x3pbbfm_cognitive-schemas-and-core-beliefs-in-psychological-problems-a-scientist-practitioner-guide_lifestyle",
      "views_total": 0
    },
    {
      "access_error": null,
      "allow_embed": true,
      "created_time": 1454116228,
      "description": "Read or Download Book PDF Here http://readsbooksonline.com.playsterpdf.com/?book=0073378275<br /><br /><br /><br /><br /><br />Hole's Human Anatomy & Physiology 13th Edition  Free PDF  ",
      "duration": 8,
      "id": "x3pbbfb",
      "owner.id": "x1q0f9s",
      "owner.screenname": "Anas",
      "owner.url": "http://www.dailymotion.com/anas42",
      "private": false,
      "private_id": null,
      "published": true,
      "tags": [
        "Holes Human Anatomy Physiology 13th Edition"
      ],
      "thumbnail_120_url": "http://s2.dmcdn.net/StgHl/x120-Bcb.jpg",
      "thumbnail_180_url": "http://s2.dmcdn.net/StgHl/x180-seJ.jpg",
      "thumbnail_240_url": "http://s2.dmcdn.net/StgHl/x240-2ac.jpg",
      "thumbnail_360_url": "http://s2.dmcdn.net/StgHl/x360-zbG.jpg",
      "thumbnail_480_url": "http://s2.dmcdn.net/StgHl/x480-Yqp.jpg",
      "thumbnail_60_url": "http://s2.dmcdn.net/StgHl/x60-jRb.jpg",
      "thumbnail_720_url": "http://s2.dmcdn.net/StgHl/x720-HI3.jpg",
      "thumbnail_url": "http://s2.dmcdn.net/StgHl.jpg",
      "title": "Hole's Human Anatomy & Physiology 13th Edition  Free PDF",
      "url": "http://www.dailymotion.com/video/x3pbbfb_hole-s-human-anatomy-physiology-13th-edition-free-pdf_lifestyle",
      "views_total": 0
    }
  ]
}